( ru_0001 "Корреспондент, американской газеты, Арчибальд, Скайлс, проходя мимо, увидел стоявшую перед объявлением босую, молодую женщину, в ситцевом опрятном платье, - она читала, шевеля губами." )
( ru_0002 "Она завела, прядь волнистых вол+ос за ухо, подняла с тротуара корзинку с зеленью, и пошла через улицу." )
( ru_0003 "Со спокойным мужеством, Скайлс, ожидал всего, в этом безумном городе." )
( ru_0004 "+Окна многоэтажных домов, иные разбитые, иные заколоченные досками, казались нежилыми, - ни одна голова, не выглядывала на улицу." )
( ru_0005 "В это время, перед объявлением, остановился рослый, широкоплечий человек, без шапки, по одежде, солдат, в рубахе без пояса, в обмотках." )
( ru_0006 "Глаз+а ленивые, серо-карие, и так же как у той женщины, - с искоркой." )
( ru_0008 "Скайльс, тоже теперь прищурясь, оглянул солдата, вспыхнул гневно, и пошёл, по направлению к Неве, - шагал уверенно, и широко." )
( ru_0009 "На куче песку, один во всём сквере, видимо уже давно, - сидел маленький мальчик, в грязной рубашке, - горошком, и без штанов." )
( ru_0010 "В руке он держал конец, верёвочки, к другому концу верёвочки, была привязана з+аногу, старая, взлохмаченная, ворона." )
( ru_0011 "Мальчик, ворона, пустые дом+а, пустынные улицы, странные взгляды прохожих, и приколоченное гвоздиками объявление, - кто-то зовёт лететь, из этого города, в звёздную пустыню." )
( ru_0012 "Развернул план Петербурга, и, водя по нему концом трубки, отыскал Ждановскую набережную." )
( ru_0013 "Небольшая дверца в нём, была приотворена, на пороге сидел на корточках рабочий, и размешивал в ведёрке кирпично-красный сурик." )
( ru_0014 "На вопрос Скайльса, - здесь ли можно видеть инженера Лося, рабочий кивнул, во внутрь сарая." )
( ru_0015 "Сарай едва был освещён, - над, столом заваленном чертежами и книгами, горела электрическая лампочка, в жестяном конусе." )
( ru_0016 "Сквозь балки лесов, поблескивала металлическая, с частой клёпкой, поверхность сферического тела." )
( ru_0017 "Сквозь раскрытые половинки ворот, были видны багровые п+олосы заката, и клубы туч, поднявшихся с м+оря." )
( ru_0018 "Учился на медные деньги, с двенадцати лет сам их зарабатываю." )
( ru_0022 "Над этой машиной, - он ткнул трубкой в сторону лесов, - работаю давно." )
( ru_0024 "В междузвёздном пространстве, носятся осколки планет, нерождённых, или погибших миров." )
( ru_0025 "Между зубами у них была трава, они паслись там, где теперь льды." )
( ru_0027 "Мы втянули его, и он упал, разбил земную кору, отклонил полюсы." )
( ru_0030 "Быть может, от этого именно, удара, погиб материк, лежавший на запад, от Африки, в Атлантическом океане." )
( ru_0031 "Поэтому, я клад+у на весь перелёт, в безвоздушном пространстве, - шесть, семь, часов." )
( ru_0032 "Через несколько лет, путешествие на Марс, будет не более сложно, чем перелёт, из Москвы в Берлин." )
( ru_0033 "На глаз, Скайльс, определил, что яйцеобразный аппарат, был не менее восьми с, половиной метров высоты, и шести метров, в поперечнике." )
( ru_0034 "Его окружала двойная, массивной стали, круглая спираль, свёрнутая в противоположные ст+ороны, - буфер." )
( ru_0035 "Аппарат был построен из мягкой, и тугоплавкой стали, внутри хорошо укреплён рёбрами, и лёгкими фермами." )
( ru_0036 "Внутри этого, второго, кожаного, стёганого, яйца, находились, аппараты наблюдения и движения, кислородные баки, ящики для поглощения углекислоты, полые подушки для инструментов, и провизии." )
( ru_0037 "Таков, в общих чертах, был принцип движущего механизма: это была, ракета." )
( ru_0038 "Аванс, - шесть фельетонов, по двести строк, чек можете учесть в Стокгольме." )
( ru_0039 "Что, у этой барышни, было в голове, - не пойму до сих пор." )
( ru_0040 "Лицо его в эту минуту казалось утомлённым, лоб сморщился." )
( ru_0041 "Через тысячу лет, мой окоченелый труп, влетит в её огненные океаны." )
( ru_0042 "Ведь, ад, и есть, моё безнадёжное одиночество, распростёртое в, вечной тьме." )
( ru_0043 "Лось вкратце, рассказал ему об условиях перелёта, предупредил о возможном риске." )
( ru_0044 "Предложил обеспечить семью, и выдать жалованье вперёд деньгами, и продуктами." )
( ru_0045 "Сначала думали, что это следы бурь, в магнитных полях земли." )
( ru_0046 "Одни и те же семена, оседают на Марс, и на землю, на все мириады, остывающих звёзд." )
( ru_0049 "Обоз, отобьём, и к вечеру мы, - вёрст уж, за восемьдесят." )
( ru_0050 "Надоело, - мало т+олку, да уж, и мужикам махновщина эта стала надоедать." )
( ru_0051 "В деревню ехать, - отец с матерью померли, братья убиты, земля заброшена." )
( ru_0052 "Я вам на Марсе пригожусь. Ну, очень рад, - сказал Лось, подавая ему руку, - до завтра." )
( ru_0053 "Лось показал Гусеву механизм движения, и важнейшие приборы, - Гусев, оказался ловким, и сметливым человеком." )
( ru_0054 "Он целует её в щёки, в лоб, в закрытые веки." )
( ru_0055 "Потом взошёл на лесенку телескопа, нашёл искателем Марс, поднявшийся уже над Петербургом, и долго глядел на небольшой, ясный, тёплый, шарик." )
( ru_0056 "Ах, Боже мой, какие могли быть дел+а важнее Катюшиной любви!" )
( ru_0058 "Осенний ветер над Катей, лежащей в земле, под крестом." )
( ru_0059 "Накинул пальто, и зашагал через пустырь, на Большую Монетную улицу, к себе на квартиру, где полгода тому назад умерла Катя." )
( ru_0060 "Он открыл дверь в спальню, где, после смерти Кати, он никогда не ночевал." )
( ru_0061 "Гусев и Маша, жили в одной комнате, в когда-то роскошном, огромном, теперь заброшенном доме." )
( ru_0062 "Над головой летела, не могла улететь, весёлая женщина, с весёлыми младенцами." )
( ru_0063 "Семь лет меня ни пуля, ни штык, не могли истребить." )
( ru_0064 "Он сел к столу, начал лупить варёную картошку, - разломил, окунул в соль. На завтра приготовь чистое, две смены, - рубашки, подштаники, подвёртки." )
( ru_0065 "Шли с набережной, бежали из переулков, бубнили, сбивались в кучки, лежали на чахлой траве, - поглядывали на низкое солнце, пустившее сквозь облак+а широкие лучи." )
( ru_0066 "До сумерек переливался говор, шли разные разговоры в толпе, ожидающей необыкновенного события." )
( ru_0067 "Его ярко освещённая внутренность, из стёганой ромбами, жёлтой кожи, была видна сквозь круглое отверстие люка." )
( ru_0068 "Недолго ждать, когда пошатнётся даже разум, - единственные цепи на этом чудовище." )
( ru_0069 "В молчании теперь, тысячи людей, глядели на квадратные, освещённые, +окна сарая." )
( ru_0070 "Электричество было потушено, и бледный свет проникал сквозь стёкла глазков." )
( ru_0071 "Лось чувствовал: - сердце бьётся чаще, чаще, уже не бьётся, - трепещет мучительно." )
( ru_0073 "В один, из глазков, входил прямой, ослепительный луч солнца." )
( ru_0074 "Лось с трудом оторвался от этого зрелища, - живоносного огня вселенной." )
( ru_0075 "Теперь уже ясно можно было видеть, резкие, длинные, т+ени от скал, - они тянулись через оголённую, ледяную равнину." )
( ru_0076 "Несколько линий, точек, и полукружий, разбросано к западу и востоку от этой, экваториальной группы." )
( ru_0077 "Лось, жадно вглядывался в эту сеть линий: - вот они, сводящие с ума астрономов, постоянно меняющиеся, геометрически правильные, непостигаемые, каналы Марса." )
( ru_0078 "Лось кинулся к реостатам: - Попали, Алексей Иванович, притягиваемся, падаем." )
( ru_0079 "Казалось, - из чёрной бездны, он сам теперь летел на них." )
( ru_0080 "Аппарат прорезывал облак+а над тусклой равниной, и, ревя и сотрясаясь, медленно теперь опускался. Садимся! - успел только крикнуть Лось, и выключил двигатель." )
( ru_0081 "Мышь понемногу ожила, подняла нос, стала шевелить усами, умылась." )
( ru_0082 "Покалывало грудь, стучала кровь в виск+и, но дышалось легко, - воздух был тонок и сух." )
( ru_0084 "Идти было необычайно легко, хотя н+оги, и, вязли по щиколотку, в рассыпающейся почве." )
( ru_0085 "Из-под ног выбегали животные похожие на каменных ящериц, - ярко оранжевые, с з+убчатым хребтом." )
( ru_0086 "Несколько раз, в гуще лапчатой заросли, скользили, кидались в сторону, какие-то щетинистые клубки." )
( ru_0087 "Отсюда была видна холмистая равнина, того же апельсинового, но более тусклого цвета." )
( ru_0088 "Привычной хваткой расстегнул кобуру, вытащил револьвер: - Эй, - закричал он, - кто там у аппарат, так вашу эдак!" )
( ru_0089 "От берега до ближайшей кущи деревьев, Лось и Гусев шли по горелому, бурому, праху, - перепрыгивали через обсып+авшиеся, неширокие каналы, огибали высохшие прудики." )
( ru_0093 "Гусев нагнулся, и пхнул ногой, - из-под праха покатился проломанный человеческий череп, в зубах его блеснуло золото." )
( ru_0094 "Сейчас же второй паук побежал из-за дома к деревьям, поднимая коричневую пыльцу, и ткнулся в колючую сеть, стал биться в ней, вытягивая н+оги." )
( ru_0095 "В гладких ст+енах, - узкие как щели, глубокие отверстия окон." )
( ru_0099 "Они м+инули тёмный вестибюль, и вошли в многоугольную, высокую залу." )
( ru_0100 "Свет проникал в неё сквозь забранные стеклом, отверстия сводчатого купола." )
( ru_0101 "В другой, - вдребезги разбитое зеркало, закрывающее одну из стен, на пол+у - куча истлевшего тряпья, опрокинутая мебель, в шкафах - лохмотья одежд." )
( ru_0102 "Внизу и наверху, - на хор+ах стояли плоские шкафы, и тянулись п+олки, уставленные маленькими, толстыми книжечками." )
( ru_0103 "Со шкафов, с полок, из тёмных углов библиотеки, глядели каменными глазами, морщинистые, лысые г+оловы, учёных марсиан." )
( ru_0104 "Бумага их была зеленоватая, шрифт геометрического очертания, мягкой коричневой окраски." )
( ru_0105 "Желтоватые, ветхие листы её, шли сверху вниз, непрерывной сложенной зигзагами полосою." )
( ru_0106 "Спустя несколько страниц, между треугольниками появились цветные круги, меняющейся как медузы, формы и окраски." )
( ru_0108 "Сплетения и переливы цветов и форм этих треугольников, кругов, квадратов, сложных фигур, бежали со страницы на страницу." )
( ru_0109 "Несколько мгновений темнота была насыщена лишь её мрачными, лучами." )
( ru_0110 "Присели, отпыхиваясь. Ну нет, по ночам в эти паучиные мест+а я не ход+ок, - сказал Гусев, отвинтил люк, и полез в аппарат." )
( ru_0112 "Очевидно, что марсианин лётчик, даст знать куда-нибудь, в населённый центр." )
( ru_0113 "Свет красноватой звезды-земли, бледнел, она приближалась к зениту, лучик от неё шёл в самое сердце." )
( ru_0114 "Лишь, одна, ночь, отделяла его от земли, от мучительных теней." )
( ru_0115 "Ледяным ужасом сжало мозг: Лось явно увидел себя, сидящего среди чужой пустыни, на железной коробке, как дьявол одинокого, покинутого Духом земли." )
( ru_0116 "Быть может, этот красноватый шарик земли, плывущий в звёздной пустыне, - лишь живое, плотское сердце великого Духа, раскинутого в тысячелетиях?" )
( ru_0118 "Ослепительно розовые гр+яды облаков, как жгуты пряжи, висевшей с востока на запад, покрывали утреннее небо." )
( ru_0120 "Три п+ары острых, гибких крыльев, простирались с боков его." )
( ru_0121 "Лёгким движением руки, он указал на солнце, и проговорил знакомый звук, прозвучавший странно: - Соацр." )
( ru_0122 "Гусев, после того как его коснулись, дёрнул на лоб козырёк, - Как с дикарями, обращаются." )
( ru_0123 "Вдруг, всплеснул руками, обернулся к солдатам, и быстро быстро стал говорить им, подняв к небу стиснутые руки. - Аиу, - ответили солдаты, завывающими голосами." )
( ru_0124 "Один всё-таки, взял папироску, рассмотрел, понюхал, и спрятал в карман белых штанов." )
( ru_0125 "Ревели пропеллеры, при поворотах и подъёмах поскрипывали, двигались гибкие крылья, шумели вертикальные винты." )
( ru_0129 "Затем вынул из кармана давешнюю книжку с чертежами, прося указать звуки, геометрических букв." )
( ru_0130 "Озеро начало ходить зыбью, закипело, и из средины его, поднялась сильная струя воды, раскинулась, и опала. - Соам, - проговорил марсианин торжественно." )
( ru_0131 "Корабль летел в ту сторону, и Лось увидел наконец, большой, прямой, канал." )
( ru_0132 "Марсианин, выпятил нижнюю губу, поднял разведённые р+уки к небу: - Тао, хатха, уталицитл." )
( ru_0137 "Вот, пронеслась, вся в цветах, плетёная лодка, - три женских, большеглазых, худеньких лица, голубые чепцы, голубые летящие рукава, белые шарфы." )
( ru_0140 "Гусев, озирался, повторял шопотом: - Гляди, гляди, эх ты." )
( ru_0141 "Но вот, из лесных кущ, всё чаще стали подниматься скалистые пики." )
( ru_0142 "Сквозь дрёму, улыбаясь, он хмурил брови, - силился проникнуть за эту тонкую пелену, скользящих солнечных пятен." )
( ru_0143 "А сидеть, - цветы нюхать: этого и у нас на земле, сколько в душу влезет." )
( ru_0144 "А вот надо, чтобы они бумагу нам выдали, о желании вступить в состав Российской, Федеративной, Республики." )
( ru_0145 "Гусев проговорил с достоинством: - Позвольте познакомиться, - полковник Гусев, инженер, - Мстислав, Сергеевич, Лось." )
( ru_0146 "Теперь Лось рассмотрел, что Аэлита была ему по плечо, тонкая и лёгкая, как девочка." )
( ru_0147 "Гусев вздохнул, сказал в полголоса: - Хорошая барышня, очень приятная барышня." )
( ru_0148 "Извилистой тенью, проплыла гряда Урала, ниточка нижнего течения Волги." )
( ru_0149 "Тогда Лось вышел на двор, первый раз за эти семь дней." )
( ru_0150 "Тогда он отошёл от статуи, и сейчас же увидел внизу, на лестнице, Аэлиту." )
( ru_0151 "Волосы Аэлиты, были покрыты чёрным колпачком, - капюшоном плаща." )
( ru_0152 "Лицо, хорошо, различимо, в свете звёзд, но глаз не видно, - лишь большие тени, в глазных впадинах." )
( ru_0153 "В нас, потомках Магацитлов, живёт память об иной жизни, дремлет ашхе, как непроросшее зерно." )
( ru_0154 "До сих пор, там ещё видны холмы, из рыбьих костей." )
( ru_0155 "Но уже хищный ихи, распростёр острые крылья над журавлём, и паук сплёл сеть, и глаз+а страшного ча, горят сквозь голубую заросль." )
( ru_0157 "Когда ихи падает из, розового облака, - стань тенью, и глаз+а ихи, напрасно будут иск+а тебя в траве." )
( ru_0161 "Удал+и от, себя всё, сродное злу, закопай свою ненависть, под порогом хижины." )
( ru_0162 "Множество гигантских яиц, затерялось в звёздном пространстве, множество разбилось, о поверхность, Марса." )
( ru_0163 "Но воды в колодцах было мало, погибли зёрна ячменя, в сухой и бесплодной почве." )
( ru_0164 "Мы построим большой город Саоцера, что значит Солнечное Селенье, мы дадим жизнь всем, кто хочет жизни." )
( ru_0165 "Тогда же н+ачаты были постройкою, шестнадцать гигантских цирков Ро, куда собиралась вода, во время таянья снегов на полюсах." )
( ru_0168 "Лишь через двадцать, тысячелетий мы, потомки племени Гор, снова прочли, книги Атлантов." )
( ru_0169 "Внизу поляны, на опушке, мальчик пастух, бегая и вскрикивая, загонял в кирпичный сарай, глухо порёвывающих, хаши." )
( ru_0171 "Тогда в глазах её, появился ужас. - Тебе девка, совсем замуж пора, - сказал ей Гусев, по-русски." )
( ru_0172 "Гусев, увидел часть большого свода, в глубине упирающегося, на квадратный столб, часть стен+ы, надписями, и геометрическими фигурами." )
( ru_0173 "Надо меры принимать, - убьют, они нас, Мстислав Сергеевич, поверьте мне, - этим закончится." )
( ru_0175 "На нижней ступени, она остановилась, - было приятно стоять, в зное солнечного света, входящего сквозь, узкое окно." )
( ru_0176 "Старичок хмурился, жевал ртом. - Хорошо, сказал он, и пальцы его, затрепетали по одеялу, - пусть, Сын Неба, даст тебе это знание." )
( ru_0178 "Переходы эти, сопровождались, потрясениями расы, потому что властвующие не могли, без борьбы, уступить власти над миром, но старость, и вырождение, принуждали их к, этому." )
( ru_0179 "Центр её цивилизации погиб, во время столкновения земли, с, осколками кометы Пто." )
( ru_0180 "Они построили подземный храм, Спящей, Головы, Негра, и стали привлекать к себе людей, - исцеляли больных, гадали о судьбе, и верующим показывали т+ени ум+ерших." )
( ru_0181 "Вещь, есть, ядро, сферы сгущающегося разума, подобно круглой молнии, в которую уплотняется грозовой воздух." )
( ru_0182 "Они стали строить огромные, украшенные з+олотом храмы, и посвящать их солнцу, - отцу и владыке жизни, гневному и животворному, умирающему, и вновь рождающемуся." )
( ru_0183 "Иные из кочевников, проникли к экватору, и там, уничтожили их негры, стад+а слонов, и болотные лихорадки." )
( ru_0184 "Таково было нач+ало третьей, самой высокой, в+олны, цивилизации, Атлантов." )
( ru_0185 "Они украсили город новыми стенами, и семиугольными башнями, выложили з+олотом двадцать один уступ гигантской пирамиды, провели акведуки, впервые в, архитектуре стали употреблять колонну." )
( ru_0186 "На севере они воевали с циклопами, - уцелевшими от смешения, одичавшими потомками, племени, З+эмзе." )
( ru_0188 "Он, соединил младенческие, племена Арийцев, принадлежавших к седьмому, из семи, народов расы, в царство Ра." )
( ru_0195 "В, то время, на восточном рубеже земли, был поставлен сфинкс, изображавший в, одном теле четыре стихии, - символ, тайны, спящего, разума." )
( ru_0196 "Первородное зло было в том, что бытие, - жизнь земли и существ, - постигалось как нечто, выходящее из разума человека." )
( ru_0197 "Ничто, не сдерживало более пресыщенную фантазию, жажду извращений, безумие, опустошённого, разума." )
( ru_0198 "Они были в, высоких шлемах, в панцырных поясах, без щитов." )
( ru_0199 "Тысячелетней скукой, веяло от этих кирпичных, подметённых, один как один, коридоров." )
( ru_0200 "На одной, из крупнейших фабрик, гудящие т+олпы рабочих, возбуждённые, мрачные, свирепые, лица." )
( ru_0201 "К вечеру, т+олпы народа, набили огромную площадь, перед домом Совета." )
( ru_0202 "Под тяжёлыми сводами, в круглой зале, на скамьях амфитеатра, сидели, члены, Совета." )
( ru_0203 "Уличная пестрота, шум, роскошь золотых лодок, и зависть тех, кто снизу глядит на эти лодки." )
( ru_0204 "Скука, скука, - вы видите - пыльные коридоры, с пыльным светом, где бредут сожжённые души, зевая от скуки." )
( ru_0206 "Движением бровей, Тускуб, заставил, утихнуть, амфитеатр: История Марса, окончена." )
( ru_0208 "Он, выкинул руку, по направлению Тускуба: - Он лжёт!" )
( ru_0209 "Мы оставим лишь необходимые для жизни, учреждения и предприятия." )
( ru_0212 "Руки, он глубоко засунул за ременный пояс. - В лодку я уж всё уложил: провизию, оружие." )
( ru_0213 "Рад, он этому чувству напряжённого, смертельного, ожидания, что вот-вот раскроется какой-то, немыслимый свет? - Не радость, не печаль, не сон, не жажда, не утоление..." )
( ru_0214 "И жизнь входит в него по зеркальному полу, под сияющими окнами." )
( ru_0215 "В его теле, ещё текла горячая кровь, он был весь ещё полон тревожными семенами жизни, - сын земли." )
( ru_0216 "Лицо её казалось счастливым. - Отец дал мне яд, но я видела, - он, не верит, мне." )
( ru_0217 "На середине пропасти, лестница ушла в глубь скал+ы, в узкий туннель." )
( ru_0218 "Гусев вылез из лодки, вскинул на плечо мешок, широко провёл рукой по воздуху: - С, приветом, товарищи! - Стало тихо, как во сне." )
( ru_0221 "Гор, медленно, и научно, подготовлявший, восстание, и даже после вчерашнего, медливший и не решавшийся, - вдруг точно проснулся." )
( ru_0222 "Он произнёс, двенадцать, бешеных речей, переданных в рабочие кварталы, туманными зеркалами." )
( ru_0223 "Чтобы хоть не надолго, отвлечь внимание, он послал, пять тысяч безоружных марсиан, в центр города: - кричать, просить тёплой одежды, хлеба, и хавры." )
( ru_0224 "Пять, тысяч марсиан, одною глоткой закричали: - Айяй! - Развернули огромные зонтики с надписями, и пошли умирать, запели унылым воем, старую, запретную песню." )
( ru_0226 "А уже вокруг завыли, завизжали марсиане, пос+ыпались изо всех углов, подъездов, из-за деревьев." )
( ru_0227 "Корабли, падали, с неба, к ногам гигантской статуи Магацитла, улыбающегося, с закрытыми глазами." )
( ru_0228 "К ночи, Гусев, осадил площадь Дома Советов, и стал строить баррикады, в улицах, разбегающихся звездою от площади." )
( ru_0229 "Тогда Гусев произнёс последнюю за этот день речь, очень короткую, но выразительную, влез на баррикаду и швырнул, одну за другой, три ручных гранаты." )
( ru_0231 "Перед Домом Совета Гусев, сам зажёг первый костёр, из обломков мебели." )
( ru_0232 "Поздно ночью, Гусев вернулся в Дом Совета, - продрог, и был голоден." )
( ru_0233 "Хавра, сильно начинала действовать на него. - Тускуб мечтает, о золотом веке: - открыть последнюю эпоху Марса, - золотой век." )
( ru_0235 "Навстречу им, из темноты улиц, взвился огненный шар, второй, третий." )
( ru_0236 "Лось хотел было увлечь, за собой Г+ора, но марсианин, стиснул зубы, вцепился в перила: - Идите." )
( ru_0237 "Расширенные глаз+а, различали неясные, сероватые очертания, - но эти зыбкие п+ятна, были лишь галлюцинациями темноты. - Стой. - Что? - Дна нет." )
( ru_0238 "Издалека, словно из глубины, доносились какие-то вздохи, - вдыхание, и, выдыхание." )
( ru_0239 "Они прислонились рядом, плечо к плечу, к шершавой стене." )
( ru_0240 "Показалось мне, Мстислав Сергеевич, будто все звёзды, - это, всё, - я." )
( ru_0241 "Гусев крикнул ему, - что? - и только тогда, взглянул вглубь кирпичной шахты." )
( ru_0243 "Обеими руками она, оперлась, о, подушки, и села. Сын неба, сказала она нежно, и тихо, сын мой, любовь моя." )
( ru_0244 "Кровь, била, в, виск+и, разрежённый воздух, хлестал ледяными бичами." )
( ru_0245 "Предполагалось, что его двигатель, перевернёт все устои механики, все несовершенства, мировой экономики." )
( ru_0246 "Аэлита поцеловала его, и он почувствовал, горький запах яда, на её губах." )
( ru_0247 "Ветер бешеным порывом, подхватил это, впервые произнесённое на земле имя, развеял его среди летящих снегов." )
( ru_0248 "Лось распахнул, заметённую сугробом, дверцу, вошёл в тёплый домик, сбросил шарф, и шляпу." )
( ru_0249 "Вдова что ли, что сама ведёшь дело? - Не вдова, ваше превосходительство, а надо же чем-нибудь жить." )
( ru_0250 "Мне сейчас сорок восемь, а вам под шестьдесят, думаю? - Вроде этого." )
( ru_0251 "Потом остановился, и краснея сквозь седину, стал говорить: - Ничего не знаю о тебе, с тех самых пор." )
( ru_0253 "Он покраснел до слёз, и нахмурясь, опять зашагал. - Всё проходит мой друг, - забормотал он. - Любовь, молодость, - всё, всё." )
( ru_0254 "Молодость, у всякого проходит, а любовь, - другое дело." )
( ru_0255 "Говоришь, - он зарезал князя: так почему ж он святой, и зачем ему быть, надо, княжеской могилой?" )
( ru_0259 "Да, и церковь-то, была его домашняя, им самим строенная." )
( ru_0260 "Перед вечером, по дороге в Чернь, молодого купца Красильщикова, захватил ливень, с грозой." )
( ru_0261 "Лошадь, каждый раз, вся дёргалась, от них вперёд, прижимая уши, собака шла, уже скоком..." )
( ru_0262 "Что ж мне теперь делать? - Стёпа, я опять скоро приеду." )
( ru_0263 "Да ведь папаша будут дома, - как же я вас увижу!" )
( ru_0264 "А я дочь доктора, живу от вас недалеко, на Пречистенском бульваре." )
( ru_0265 "А, съевши яблоко, и выпив чашку чаю, глубже подвинулась на диване, и похлопала рукой возле себя: - Теперь сядьте ко мне." )
( ru_0266 "Я знал его с детства, теперь же так привык к нему, что вечер без него был мне странен." )
( ru_0267 "И я пошёл, и прилёг в кабинете, и внезапно заснул, - весь день мёрз в дороге." )
( ru_0268 "Можно ли помнить эту ночь, где-то там, будто бы в небе?" )
( ru_0269 "В тишине слышен был откуда-то, равномерный, и как будто, тоже сырой скрип дергача." )
( ru_0270 "Весло нашлось только одно, и то вроде лопаты, и я грёб им, как дикарь, - то направо, то налево." )
( ru_0271 "Зашумел наконец, встречный поезд, налетел с грохотом и ветром, слившись в одну, золотую полосу освещённых окон, и пронёсся мимо." )
( ru_0273 "Проводник вошёл в купе, осветил его, и стал готовить постели." )
( ru_0274 "Ну и что же у вас, с этой, девицей, было?" )
( ru_0275 "День был жаркий, парило, прибрежные тр+авы, испещрённые жёлтыми цветочками куриной слепоты, были душно нагреты влажным теплом, и над ними низко вились, несметные, бледно-зелёные мотыльки." )
( ru_0278 "Полежав в изнеможении, она приподнялась, и с улыбкой счастливой усталости, и ещё не утихшей боли, сказала: - Теперь мы муж с женой." )
( ru_0279 "Вдруг послышались, мягко бегущие шаги, - и на пороге встала в чёрном шёлковом истрёпанном халате, и истёртых сафьяновых туфлях, её полоумная мать." )
( ru_0280 "И уж целых двадцать лет тому назад, было всё это - перелески, сороки, болота, кувшинки, ужи, журавли." )
( ru_0281 "Он был худой, высокий, чахоточного сложения, носил очки цвета йода, говорил несколько сипло, и, если хотел сказать что-нибудь погромче, срывался в фистулу." )
( ru_0284 "На другой день, дьякон, и дьяконица, по его требованию, кухарку прогнали." )
( ru_0285 "Ужасно будет жаль уезжать. - А кто ж тебя гонит? - ответил дядя. - Куда тебе спеш+ить?" )
( ru_0286 "С+идя и беседуя, он непрестанно ждал: вот-вот войдёт она, - объявит горничная, что готов чай в столовой, и она придёт катить дядю." )
( ru_0287 "И ждал минуты, когда она опять придёт, увезёт дядю, и потом, где-нибудь встретится с ним, и он перекинется с ней, хоть несколькими словами." )
( ru_0288 "Он бодро ответил: - Не беспокойтесь тётя, я займусь чтением." )
( ru_0289 "Тут, она, с размаху, полетела в козлы, и рассекла щёку, об что-то железное." )
( ru_0290 "И тут она вдруг, с усмешкой тряхнула головой: - И, испытаю! - А кто ваш муж?" )
( ru_0291 "Как мне теперь глядеть в глаз+а Николаю Григорьевичу, и Клавдии Александровне!" )
( ru_0292 "Меня один товарищ, зовёт к себе в Могилёв, - пишет, удивительно живописный город..." )
( ru_0296 "С визгом к+олец, жутко летит кверху, исчезает в ветвях, и, как подстреленная стремительно несётся вниз, приседая и развевая подол." )
( ru_0297 "Он, сел, возле каретного сарая, на подножку тарантаса, закиданного засохшей грязью." )
( ru_0298 "Казакова сказала ему, когда, она, вышла: да конечно, сирота без матери, отец нищий, беспутный мужик..." )
( ru_0299 "Она тихо ответила, смаргивая слёзы, и суя, в самовар, пылающие щепки: - Кабы правда полюбили, всё бы легче было..." )
( ru_0300 "Потом стал порошить снег, убеляя мёрзлую грязь, точно сахарной пудрой, и усадьба, и видные из неё поля, стали сизо-белы, и просторны." )
( ru_0301 "Тьма дома, шум вокруг этой тьмы, трясутся ставни, в печке то и дело, завывает..." )
( ru_0302 "Верно, вы правда меня очень любите? - Нисколько не люблю." )
( ru_0303 "И представить себе Москву, и его в ней, его жизнь там, его какие-то дел+а, не было никакой возможности." )
( ru_0304 "Накануне его нового отъезда, ночь была уже предвесенняя, светлая и, ветреная." )
( ru_0305 "Она стала перечислять заученным тоном: - Нынче у нас, щи, флотские, битки по-казацки." )
( ru_0306 "На другой день, он опять пришёл, и сел, за свой столик." )
( ru_0307 "Теперь пишу истории, этих войн, по заказам, разных, иностранных, издательств." )
( ru_0308 "Это странно, но я уж, как-то привыкла к вам." )
( ru_0310 "Я буду ждать вас там, при выходе из метро, ровно в восемь с половиной. - Мерси." )
( ru_0311 "И вот представь себе: весна, всюду множество нарядного, беззаботного, и приветливого народа, эти скворцы, сыплющие немолчным щебетом, точно каким-то солнечным дождем, - и Галя." )
( ru_0312 "И уже не подросток, не ангел, а удивительно хорошенькая, тоненькая девушка, во всём новеньком, светло-сером, весеннем." )
( ru_0313 "Вам можно, вы же дочь художника, и живу я в двух шагах отсюда. - Ужасно обрадовалась: - Конечно можно!" )
( ru_0314 "Ты значит будешь в Ницце, восемнадцатого, а я не поздн+ее двадцатого, двадцать первого." )
( ru_0315 "Это-то, впрочем, очень хорошо вместе с длинным, шёлковым платьем, цвета золотистой, луковой шелухи." )
( ru_0316 "Целый вечер, умирали от нетерпения, ожидания, и наконец, махнули на тебя рукой." )
( ru_0317 "Я ведь очень стыдлива, не суди пожалуйста по тому, как я веду себя с тобой." )
( ru_0318 "Месяц-то, и правда обмывался, да уж обмылся кажется; распогодилось, и как сладко пахнет цветами." )
( ru_0319 "А посмотришь вокруг, - что это, собственно, такое, этот трактир?" )
( ru_0320 "И опять обнимает, жмёт мою робкую руку, кладёт на колени себе." )
( ru_0321 "А потом думаю, - э, была не была, поеду-ка я домой, авось Бог донесёт, - не до города, не до дел, в, этакую страсть!" )
( ru_0323 "Меня не очень берут, любят больше полных, или уж чтобы как, Анеля." )
( ru_0324 "Но постой, я забыл: ведь, тебя какой-то твой дядя привёз в Москву? - Дядя, дядя." )
( ru_0325 "Отец, легонько вздохнул: - Ну как хочешь, душа моя." )
( ru_0326 "Одеваясь в, прихожей, он продолжал что-то думать, с милой усмешкой вспомнил стихи Фета: Какая, холодная, осень!" )
( ru_0327 "Зимой в, ураган, отплыли, с несметной толпой прочих беженцев, из Новороссийска в Турцию, и на пути в море, мой муж умер в тиф+у." )
( ru_0329 "Если б я захотела... - Прости, так говорят только кокотки. - А кто ж я как не кокотка?" )
( ru_0330 "А куры-то, и, впрямь, не будут клевать, потому что клевать будет нечего." )
( ru_0331 "И заплакав, подошла, и уронила мне на грудь г+олову: - Боже мой, когда же это кончится!" )
( ru_0332 "Скажи же наконец ему, что ты любишь меня, что всё равно, ничто в мире, не, разлучит нас!" )
( ru_0334 "Из-под жёсткого шёлка смольных волос, разделённых на прямой пробор, и вьющимися локонами падавших на низкий лоб, поблескивали вдоль круглой шейки, длинные, серебряные, с+ерьги." )
( ru_0335 "Вот я напишу вас Медузой, или Немезидой! - Это богиня м+ести? - Да, и очень злая." )
( ru_0336 "И вот только в каких-нибудь северных монастырях, осталась теперь эта, Русь." )
( ru_0339 "Я, сунул, ему, рубль, - он сокрушённо вздохнул, и пропустил." )
( ru_0340 "Обычно бедуины едят, хыбыз, - кукурузные лепёшки, - варёное пшено, с козьим молоком." )
( ru_0343 "Он всё говорил мне, что ему жалко тебя, что ты девочка бедная, что никто не возьмёт тебя замуж, без приданого." )
( ru_0344 "А в соседнем доме, перед мясной Греца, два подмастерья, вывешивали тушу кабана, - тёмная кабанья кровь, капала на асфальт." )
( ru_0349 "Но когда Фемель, в, восемь тридцать утр+а, выходил, из жил+ой половины дома, никак нельзя было заметить, что он завтракал." )
( ru_0350 "Но, от, Фемеля, никогда не пахло спиртным, его р+уки не дрожали." )
( ru_0355 "В молодости, я курил десятипфенниговые сигары, потом когда стал зарабатывать немного больше, - двадцатипфенниговые, а затем несколько десятков лет, - шестидесятипфенниговые." )
( ru_0359 "Так вот, оставь, в, покое молодого Ф+емеля, пусть себе играет в бильярд." )
( ru_0362 "Семья Кильб, - тебе это видно невдомёк, - живёт на Модестгассе уже триста лет, вернее жил+а, - теперь никого из них не осталось." )
( ru_0364 "Ну что ж, дыши на меня, дыши мне, в лицо своей четырёхмарковой сигарой, можешь даже прибавить ещё кредитку, - лиловую." )
( ru_0365 "Ведь чаевые, - душа нашей профессии. - Да, за угол, совершенно верно." )
( ru_0366 "Пожалуйста, распишитесь здесь, сударь, нет здесь, - будем надеяться, что ты не так глуп, и не назовёшь своё настоящее имя." )
( ru_0367 "Фемель, оторвал взгляд от бильярда, отложил кий, взял сигарету, закурил, посмотрел на улицу, на которую падала тень церкви Святого Северина." )
( ru_0369 "Только несколько человек, не участвовали, в этой травле: Эндерс, Дришка, Швойгель, и Хольтен." )
( ru_0370 "Как они только могут, думал я, как они могут есть мороженое, пить пиво, и мять в руках абрикосы, в то время как Ферди, ушёл." )
( ru_0371 "От кафе до дома, семь, на Модестгассе, было всего полторы минуты ходу." )
( ru_0372 "Правда ли, что в воротах дома семь, пахло, типографской, краской?" )
( ru_0373 "Экипажи, уносили с собой разбитые сердц+а, и раненые д+уши." )
( ru_0374 "И Блюхер, торопится тотчас сойти, чтоб нас, от победы, к победе вест+и." )
( ru_0375 "Он, надёжный, оплот: покуда немецкие рощи растут, покуда немецкие флаги цветут, покуда немецкое слово звучит, не будет наш Гинденбург нами забыт." )
( ru_0376 "Глубоко поразило меня, только непредвиденное, хотя как раз непредвиденного, я более всего жаждал: любовь жены, и смерть дочери, Иоганны." )
( ru_0377 "Мезер, предупредительно поднёс рюмку коньяку, второму члену жюри, - сангвинику Кролю." )
( ru_0379 "Мысленно, я приносил его в жертву Отто, Эдит, тому мальчику, и подмастерью столяра, хотя знал, что им уже ничто не поможет, ведь они умерли." )
( ru_0380 "Каждый раз, он не понимал, о ком, идёт, речь, забывая что фамилия Эдит, тоже, Шрелла." )
( ru_0381 "Пал под Киевом; наша плоть и кровь; откуда он взялся такой, и куда ушёл?" )
( ru_0382 "Я с удовольствием возьму сигареты, но прошу вас, считайте, что мы просто обменялись подарками, ведь мы ровесники." )
( ru_0383 "Надеюсь, в, тюрьме, было сносно? - Да, сказал Шрелла, - со мной обращались вежливо. - Если тебе понадобятся деньги, скажи мне." )
( ru_0384 "Отсюда вам будет виден, восточный придел Святого Северина, ранний романский стиль, одиннадцатый, или двенадцатый век, основатель герцог Генрих Святой, по прозвищу Необузданный." )
( ru_0385 "Улыбнувшись старику, он вышел на улицу; дверь бесшумно качнулась, ещё несколько раз, и легла в пазы, обитые войлоком." )
( ru_0386 "Йозеф улыбнулся. - Разумеется, поскольку я связан с тобой. - Случилось что-нибудь неприятное? - Да. - Это связано с твоей работой? - Да." )
( ru_0387 "У Грессигмана, дают сейчас уже четыре с половиной процента скидки. - Маргарин подешевел, на пять пфеннигов." )
( ru_0388 "А ведь Ферди, улыбался даже в ту минуту, когда его уводили; он был ангелом из предместья, выросшим, на навозной куче Груффельштрассе." )
( ru_0389 "Любезность молодой дамы, которая водила по, адресной книге своим красивым пальчиком, заметно поубавилась; в этой стране явно считалось грехом, осведомляться о, цене." )
( ru_0390 "Семь, марок, без, завтрака. - Нет спасибо, я знаю дорогу на Модестгассе, право же знаю." )
( ru_0392 "Посмотрите с какой любовью и, тщательностью, выписаны н+оги святого, Иоанна, и н+оги святого Петра, н+оги пожилого, и н+оги молодого мужчины; как точно воспроизведены, детали." )
( ru_0393 "Осталось всего восемь мин+ут, всего семь мин+ут, всего шесть мин+ут." )
( ru_0394 "Таким молодчикам как ты, я желаю проиграть, семь войн подряд." )
( ru_0395 "Ну а, теперь, довольно хныкать, мне наплевать, сколько войн ты проиграл." )
( ru_0396 "Ты считаешь, что честь поругана, если первый, встречный, чужеземец, может тебя задеть?" )
( ru_0399 "И пожалуйста, оставьте меня одну; когда такси въедет в аллею, я сама его увижу; нет спасибо, мне больше ничего не надо." )
( ru_0402 "Вчера, в Эренфельдгюртеле, неизвестный молодой, человек пытался вырвать сумочку, из рук пожилой женщины." )
( ru_0403 "Так что решайте. - Пока я ещё ничего не знаю, сказал он, - жду указаний от Клары." )
( ru_0407 "Тогда побудь здесь, пожалуйста, поставь кий на место, убери шары, и дай нам что-нибудь выпить." )
( ru_0408 "Спускаясь по служебной лестнице, мальчик всё ещё слышал плач, овечьей жрицы." )
( ru_0409 "А теперь девушки, займитесь пожалуйста, подарками и цветами; Леоноре я поручаю цветы, Рут, - поздравительные адрес+а, а Марианне, - подарки." )
( ru_0410 "Он чересчур высоко подтянул помочи, и из-под его светло коричневых брючек, выглядывали синие чулки." )
( ru_0411 "И Шарль, раздувал н+оздри, чтобы втянуть в себя, родной запах деревни, но запах, не долетал." )
( ru_0412 "Многое из того что прежде он подавлял в себе, теперь развернулось." )
( ru_0413 "Элоиза, вся в слезах, бросилась к мужу на шею, с мольбой, заступиться, за, неё." )
( ru_0414 "Он мог теперь когда угодно, завтракать, и обедать, уходить, и возвращаться, никому не отдавая отчёта, вытягиваться во весь рост на кровати, когда уставал." )
( ru_0415 "Пробиваясь сквозь, щели в ст+енах, солнечные лучи длинными тонкими полосками, растягивались на пол+у, ломались об углы кухонной утвари, дрожали на потолке." )
( ru_0416 "Папаша! - лепетал Шарль. - Я очень доволен, - продолжал фермер. - Девочка наверное тоже, но всё-таки надо, её, спросить." )
( ru_0417 "Эмме, хотелось венчаться в полночь, при свете факелов, но папаше Руо, эта затея, не пришлась по душ+е." )
( ru_0418 "За дверью, висели плащ с низким воротником, уздечка, и чёрная, кожаная фуражка, а в углу валялась пара штиблет, на которых уже успела засохнуть грязь." )
( ru_0419 "Направо дверь вела в залу, то есть в комнату, где обедали, и сидели по вечерам." )
( ru_0420 "Утром, лёжа с Эммой, в постели, он смотрел, как солнечный луч золотит пушок, на её бледно розовых щеках, полуприкрытых оборками чепца." )
( ru_0421 "Однажды она попробовала, ради умерщвления плоти, целый, день, ничего не есть." )
( ru_0422 "Поздн+ее, Вальтер Скотт, привил ей вкус к старине, и она начала бредить хижинами поселян, парадными залами, и менестрелями." )
( ru_0423 "От её дыхания, шелковистая папиросная бумага, загнувшись, приподнималась кверху, а потом снова, медленно опускалась на гравюру, и уже это одно, приводило Эмму в трепет." )
( ru_0425 "Воображению иё, представились ферма, тин+истый пруд, её отец в, блузе под яблоней, и она сама, снимающая пальчиком устой, с крынок молока в, погребе." )
( ru_0427 "Жмурясь от удовольствия, она, посасывала мороженое с, мараскином, - она брала его ложечкой, с позолоченного блюдца, которое было, у неё, в левой руке." )
( ru_0428 "Она купила себе бювар, почтовой бумаги, конвертов, ручку, но писать было, некому." )
( ru_0429 "Когда горечь, разочарования прошла, сердце её вновь опустело, и опять потянулись дни, похожие один, на другой." )
( ru_0430 "В конце февраля, папаша Руо, в память своего выздоровления, привёз, зятю, отменную индейку, и прогостил три дня в, Тосте." )
( ru_0434 "Толкнувшись туда сюда, Шарль, наконец узнал, что в Невшательском округе, есть неплохой городок, Ионвиль л'Аббеи, откуда как раз на прошлой неделе выехал врач, польский эмигрант." )
( ru_0438 "Получив благоприятный ответ, Шарль решил, что если Эмма не поправится, то они переедут туда, весной." )
( ru_0439 "Здесь сходятся Нормандия, Пикардия, и Иль-де-Франс, это край п+омеси, край где говор, лишён хар+актерности, а пейзаж, - своеобразия." )
( ru_0443 "Подумайте господин, Ом+э: с утр+а они уж, наверное пятнадцать партий сыграли, и выпили восемь кувшинов сидра!" )
( ru_0444 "У отца господина Лере, был пудель, который пропадал двенадцать лет, и вдруг как-то вечером, когда отец шёл в город поужинать, прыгнул, ему, н+аспину." )
( ru_0445 "Ты перевоплощаешься, в действующих лиц, у тебя такое чувство, точно это твоё сердце, бьётся под их одеждой. - Верно!" )
( ru_0446 "Леон целый день, ждал шести часов вечера; когда же он вошёл в трактир, то кроме сидящего за столом Бинэ, там никого не оказалось." )
( ru_0447 "Наконец, последнее украшение этого жилища, составляла прибитая к стене, шестью сапожными гвоздями, трубящая Слава, вырезанная вероятно, из какой-нибудь, парфюмерной рекламы." )
( ru_0448 "Будьте настолько любезны, скажите лавочнику Камю, чтоб, он мне, мыльца отпускал, когда понадобится!" )
( ru_0449 "Это было, в одно из февральских воскресений, снежным днём." )
( ru_0450 "Вся цепь доказательств, в одно мгновение, развернулась перед Эммой, сердце у неё, запрыгало." )
( ru_0451 "Уроженец Гаскони, он впоследствии стал нормандцем, и сумел сочетать в себе, южное краснобайство, с, кошской хитрецой." )
( ru_0452 "Эмма похудела, румянец на её щеках поблёк, лицо вытянулось." )
( ru_0454 "Сквозь переплёт беседки, далеко круг+ом, было видно, какие затейливые излучины, выписывает, в лугах, река." )
( ru_0455 "За воскресной, литургией, она поднимала глаз+а от молитвенника, и меж сизых клубов ладана, возносившихся к куполу, видела кроткий лик девы Марии." )
( ru_0456 "Он +издали, увидел на дороге кабриолет патрона; какой-то человек, в холщовом фартуке, держал лошадь, под уздцы." )
( ru_0457 "Река струилась по-прежнему, неторопливо пронося свою лёгкую зыбь, мимо скользкого берега." )
( ru_0458 "Из Бюши, прибыл отряд национальной гвардии, своей гвардии в Ионвиле н+ебыло, и присоединился к пожарной дружине, под командой Бинэ." )
( ru_0461 "Не закончив своей мысли, Родольф заговорил о том, какая сегодня хорошая погода, и как приятно, идти по траве." )
( ru_0462 "Позади эстрады, у, входа в мэрию, между колонн, расположились дамы из общества, а простонародье, сидело на стульях, или стояло напротив эстрады." )
( ru_0463 "У него есть старая кобыла, очень неплохая, только вот колени облысели, - я уверен, что он отдаст её, за сто экю." )
( ru_0464 "Но теперь, когда эта любовь, стала для неё жизненной необходимостью, она боялась утратить, хотя бы частицу её, хоть чем-нибудь её, потревожить." )
( ru_0466 "Что же, может быть Шарля, и, впрямь, ждёт удача?" )
( ru_0467 "Она вспомнила, о, Родольфе, но взгляд её тотч+ас же, обратился к Шарлю, и она с удивлением заметила, что у него, довольно красивые зубы." )
( ru_0468 "Наконец, через три дня, Ипполит не выдержал, прибор снова пришлось снять, и результат получился, св+ерх неожиданный." )
( ru_0469 "Однако Ипполит, не мог себе позволить, роскошь, ходить каждый день на такой красивой ноге, и выпросил у госпожи Бовари, другую н+огу, попроще." )
( ru_0470 "Она кинулась к нему в объятия. - Ты неосторожна, - заметил он. - Ах, если б ты знал! - воскликнула Эмма." )
( ru_0471 "Наша с тобой любовь такая, что я не стыдясь, призналась бы в ней, перед лицом божьим!" )
( ru_0472 "Шарлю, она представлялась, столь же пленительной и неотразимой, как в первые дни, после женитьбы." )
( ru_0473 "А плащ, - она призадумалась, - плащ, тоже не принос+ите." )
( ru_0474 "Вы только дайте мне, адрес, портного, и предупредите его, что плащ мне скоро может, понадобиться." )
( ru_0475 "Она смотрела вокруг, и ей, хотелось, чтобы под ней, развёрзлась, земля." )
( ru_0476 "Значит, есть, же, на земле, неизречённые блаженства, и перед ними земное счастье, - прах, есть любовь превыше всякой другой, любовь непрерывная, бесконечная, неуклонно растущая!" )
( ru_0477 "Но как только свекровь уехала, Эмма, поразила Бовари своей практичностью." )
( ru_0478 "Она устремлялась, в, глубь тёмных переулков, и когда она выход+ила туда, где кончается улица, Насьональ, к фонтану, всё тело у неё покрывалось п+отом." )
( ru_0479 "Что-то бесконечно одинокое, было в этом щемящем звуке, как бы, издалека, доходившем, до слуха Эммы, сквозь шум деревьев, звон бубенцов, и тарахтенье пустого кузова." )
( ru_0480 "Но он никак не мог подобрать ни одной рифмы, и в конце концов, списал сонет, из, кипсека." )
( ru_0481 "Внезапно в, воздухе, раздался механический хрип, - это на монастырской колокольне, ударили четыре раза." )
( ru_0482 "Эмму её страсти поглощали всецело, и, о д+еньгах, она думала столько же, сколько +эрц, герцогиня." )
( ru_0483 "В тот же вечер Эмма, заставила Бовари, написать матери, чтобы она немедленно, выслала им всё, что осталось от наследства." )
( ru_0484 "Осторожно, ввёл, в, трубочку... - Лучше бы вы ввели ей пальцы в гл+отку, - заметил хирург." )
( ru_0487 "Но на Троицын день, Фелисите, бежала из Ионвиля, с Теодором, захватив всё что ещё оставалось, от гардероба Эммы." )
( ru_0488 "Родольф говорил о земледелии, о скотоводстве, об удобрениях, затыкая общими фразами, все щели, в которые мог проскочить, малейший намёк." )
( ru_0489 "Через п+олтора суток, приехал по просьбе аптекаря, господин Канивэ." )
( ru_0490 "Даже дома, он не снимает своей мрачной пелерины, и не откидывает, абажура капюшона." )
( ru_0491 "Сквозь форточку, открытую в тяжёлом, плюшевом, от пыли окне кузницы, вырисовывалась часть улицы, расцвеченной в, яркие воздушные тон+а, и усеянной людьми." )
( ru_0495 "Из-за чащи свечей, кюре бормочет что-то, - нескончаемую проповедь, - благословляет, обнимает всех и каждого, отечески, и матерински." )
( ru_0496 "Она ищет любовника, но всех отпугивает её костлявое, изъеденное экземой лицо." )
( ru_0497 "Это движение на минуту приоткрывает её н+огу, округлую, как прекрасная амфора, и сквозь чёрный, прозрачный чулок, её кожа просвечивает золотистым муаром." )
( ru_0498 "Когда после стольких, дней колебания, я наконец решился, и попросил её, прийти сюда, сегодня вечером, она удивилась, и промолчала." )
( ru_0499 "Сквозь теплоту её тела, мне кажется, я ощущаю, её, мысли." )
( ru_0500 "Отныне, будь что будет, пусть идёт время, пусть з+имы сменяют лето, - она моя, и жизнь оправдана." )
( ru_0502 "Я думаю об, усилиях незаметных людей, о безвестных, героях, долга." )
( ru_0503 "Землистая рука, лоснится от машинного масла, а ногти грязны, и черны, как, обгоревшие, концы фитилей." )
( ru_0508 "Завидев, вдали, островерхий дом Эйдо, керосинщик ещё раз, загорается огнём патриотизма, и кричит, что в день великого реванша, сведут счёты, с этим шпионом." )
( ru_0509 "Тогда принц прицелился, и наповал, убил, медведя, в десяти шагах, в ту самую минуту, когда мишка сидел, и раскачивался вправо влево, ну точь-в-точь человек!" )
( ru_0510 "Эскадроны молодых кавалеристов, торжественно гарцевавших по мостовой, сменялись лошадьми, навьюченными тюками с фуражом, громыхавшими повозками, и фургонами." )
( ru_0511 "Ремюс верно подметил: - Если снаряд не попал в тебя, ты и не думаешь, что где-то, он всё-таки разорвался." )
( ru_0512 "Я ведь хорошо знаю, что на земле, выгода важнее всего. - А то как же милый, - подтверждает, Ремюс." )
( ru_0513 "Спрашивают: - Зачем же он пошёл добровольцем, этот дядя, а? - Жрать было нечего, - ответил ополченец, выражая общественное мнение." )
( ru_0514 "Он тормошил нас, подстёгивал, подталкивал, нашу цепь в тесной траншее, прижимаясь на поворотах к стене, чтобы пропустить мимо себя, свой, взвод." )
( ru_0515 "Железнодорожная н+асыпь была близко, и в сети проволочных заграждений, отделявших нас от полотна дороги, как мухи, запутались трупы." )
( ru_0516 "Все были в полном снаряжении, готовые выступить, в любую минуту; запрещено было снимать тяжёлую, гремящую цепь патронных сумок." )
( ru_0517 "Обнимешь землю, - ведь только её, и можешь, обнять!" )
( ru_0518 "Его давит, тяжесть, собственных костей и мышц, человеческий вес." )
( ru_0519 "Теперь они совсем близко, шагах в, пятидесяти, они дышат нам в лицо, эфиром." )
( ru_0520 "Мысль, не повинуется воле, она прикована к этому мертвецу, на которого давит мир, - она проникает сквозь землю, и создаёт ему форму." )
( ru_0521 "Всюду, в широком слое земли, - грязные, чёрные, р+уки и н+оги, застывшие жесты; страшный эскиз, барельеф из глины, вздымающийся перед глазами." )
( ru_0522 "Это, раненая лошадь, с развороченным брюхом; её кровь течет на мою руку, как будто лижет её." )
( ru_0523 "Нет, это не стук, - это всё ещё сочится кровь лошади." )
( ru_0524 "Здесь, в этом тесном, как, колодезь круг+у, кончился спуск по кругам в, бешеные глубины ада, кончились медленные пытки, и неумолимая усталость, и б+ури." )
( ru_0525 "Я вновь, вижу его так ясно, как на портрете, таким каким он был, в тот далёкий, далёкий вечер." )
( ru_0526 "Вместе с человеком, исчезли все заражённые им вещи. - Теперь черёд, за тридцать шестым, - говорит санитар." )
( ru_0528 "Бронхитик, у которого ампутирована нога, демонстрирует обрубок: кожа на нём розовая, словно, у новорождённого." )
( ru_0529 "Нет, в нём нет красоты, это не эмблема родного угла земли, это варварское пёстрое пятно, которое лишь омрачает, мирный, ландшафт." )
( ru_0530 "Но перед призраком немецкого солдата, один из них пробурчал: - У, свинья!" )
( ru_0531 "И ещё я вспомнил Цюпфнера, за которого, она хотела выйти замуж." )
( ru_0534 "Позже, я взялся за Кьеркегора, весьма полезное чтение для начинающего клоуна, и это тоже было трудно, но не так утомительно." )
( ru_0535 "На первое п+одали суп, из крапивы; на второе - картофель с соусом, а на десерт, - по одному, яблоку." )
( ru_0536 "Какую-то долю секунды, я и впрямь верил, что она может переключить телефон, и соединить меня с Генриэттой." )
( ru_0537 "Его сына я знал не так уж хорошо, но всё же лучше чем отца." )
( ru_0538 "Я помог ей принести с улицы, и развязать, кипы газет." )
( ru_0539 "Я знаю, наш, школьный учитель музыки прав, когда говорит что Моцарт - божественный, Бетховен - гениальный, Глюк - неповторимый, а Бах, - величественный." )
( ru_0541 "Я, увидел кафедральный собор, крыши старого дворца курфюрста, памятник Бетховену, маленький рынок, и Дворцовый парк." )
( ru_0542 "Я очень чувствителен, ко всяким з+апахам; бьющий в нос запах капусты, напряг до предела, мою вегетативную, нервную систему." )
( ru_0543 "Когда эту шатию, возводят в ранг художников, происходят пренеприятные, недоразумения." )
( ru_0544 "Её как будто подменили, она была очень ласковая, и, пожалуй даже весёлая." )
( ru_0545 "И что для вашего католического общества, он, - тяжёлая артиллерия. - Да нет же, - он и впрямь рассмеялся. - Нет." )
( ru_0546 "Утомительное занятие. - Прости меня, сказал я, убедившись что приступ зевоты на время прошёл. - Ну и что говорит Геннельхольм?" )
( ru_0550 "Отец, действительно натерпелся страху, побледнел как полотно, и сразу постарел." )
( ru_0552 "В церковь, ходили одни старухи, не считая меня, и Марии." )
( ru_0556 "Эдгар так и не смог, до конца, простить мне эту поездку на такси." )
( ru_0558 "Отец был так потрясён, что я испугался, как бы он не, счёл, после этого, бестактным, вновь завести разговор о д+еньгах." )
( ru_0559 "Отец сердито махнул рукой, и сказал ворчливо: - Перестань!" )
( ru_0560 "Его считают негодяем, и, интриганом, но к Хериберту он и впрямь питает слабость." )
( ru_0562 "Я открыл в, ванной, белый стенной шкафчик, и тут же спохватился." )
( ru_0563 "Тогда мне придётся сделать себе карьеру на телевидении, вновь войти в славу, и церковь будет смотреть на нас, сквозь пальцы." )
( ru_0564 "Пьяный паренёк, загримированный под Фиделя Кастро, пристал ко мне, но я благополучно ускользнул." )
( ru_0565 "Ведь приметы хитрости, - не только предусмотрительность, и расчётливость, но и, осторожность." )
( ru_0567 "Да, некая графиня де Карлейл, и вправду украла на балу алмазные подвески у герцога, Бекингэма." )
( ru_0569 "Просадив всю мелочь, та протянула Зизи, купюру для размена. - Теперь я работаю, на Варо Борху." )
( ru_0570 "Она о чём-то, раздумывала. - Странно сказала она наконец. - Мне трудно поверить, что Энрике, пр+одал автограф Дюма." )
( ru_0571 "Скажу больше: я инстинктивно, не доверяю людям, покладистым, экзальтированным, и услужливым." )
( ru_0572 "Именно теперь, хозяину кабинета, подобало предложить гостю, чего-нибудь выпить, но такого н+ебыло у него в заводе." )
( ru_0573 "Ему пришлось бежать из Парижа, но причина была отнюдь не политической, как у его друга Викт+ора Гюго, - он скрывался от кредиторов." )
( ru_0574 "В конце коридора, он через гуляющую туда сюда дверь, шагнул в тамбур, куда задувал сильный ветер." )
( ru_0575 "И как нарочно, самую мою любимую, вот: Эней с, Сивиллой спускаются в ад." )
( ru_0576 "Беседа их протекала под ор, включённого на полную мощь телевизора, истошные крики детишек, и жаркие споры взрослых." )
( ru_0577 "Страницы сгорели практически целиком; он увидел всего лишь, опалённые кусочки, иногда, с фрагментами текста." )
( ru_0579 "И вдруг, бег их, превратился в падение, - они всё падали, падали, и никак не могли достичь земли, будто это была замедленная съёмка агонии." )
( ru_0580 "И действительно, маркиз де Ружвиль, покончил с собой, из-за какой-то любовной истории." )
( ru_0581 "Корсо, нажал на кнопку дистанционного управления, и экран погас." )
( ru_0582 "Красавец, офицер, превратился в развалину, ведь геройские раны, неизбежно оставляют на себе уродливые шрамы, а победы его забылись, и никого больше не интересуют." )
( ru_0584 "Этот кто-то, кем бы он там ни был; несомненно, считал себя очень хитрым." )
( ru_0585 "Подпись под фотографией, сообщала, что это, - личный астролог фюрера, и что рядом с ним, - его помощница, знаменитая фройляйн, Фрида Вендер." )
( ru_0586 "Теперь его внимание, было сосредоточено только на книге: тип бумаги, чёткость оттиска на гравюрах, погрешности, и ошибки." )
( ru_0587 "Он прошёл ещё немного, до улицы Генего, и собирался через Пон-Неф, двинуться к, Лувру." )
( ru_0589 "Потом, она как-то особенно, нежно, поцеловала его, и протянула своевольную руку, чтобы помочь делу." )
( ru_0590 "Зверь, который высматривает хоть какую-нибудь щёлочку, чтобы вырваться из западни. - Осторожно, - предупредил Ла Понте. - Она что-то замышляет." )
( ru_0592 "Его великая любовь, - галантерейщица, с не очень изящными ножками, которая служит кастеляншей у королевы." )
( ru_0593 "К той информации, которую предлагает ему автор, он непременно добавляет свою, собственную." )
( ru_0594 "Однако чем старый хрыч, перед вами провинился? - Сейчас расскажу." )
( ru_0595 "Просто есть такой тип женщин, - их уважаешь, ими восхищаешься, перед ними благоговеешь, но, +издали." )
( ru_0596 "Если вещь пропадёт, как бы искусно, вы, с вашей сообщницей ни заметали следы, я, её непременно найду, и превращу вас, в отбивную." )
( ru_0597 "Гасси, вдруг стал похож на озадаченного палтуса. - Гасси сказал я, - выпей бренди, и приготовься слушать." )
( ru_0598 "Я, похолодел от ужаса. - Ты что же хочешь бежать? - Конечно, я хочу бежать." )
( ru_0599 "Без сомнения, объяснить это нетрудно: мы катались в направлении, норд, норд, ост, а он - в направлении, зюйд, зюйд, вест, потому и встретились примерно, на середине диагонали." )
( ru_0607 "Спроси он меня, что именно я знаю о, Юлейлии, он загнал бы меня в угол, но он не спросил." )
( ru_0608 "Мак-Наббс, оказался прав: термометр, опущенный в закипевшую воду, показал всего лишь, восемьдесят семь градусов." )
( ru_0609 "Конечно, от подобных высказываний, оторопь берёт, однако, о вкусах не спорят." )
( ru_0610 "Землетрясение прекратилось, и подземные силы проявляли видимо, свою разрушительную работу где-то дальше, ибо цепь Кордильер, всегда в каком-нибудь месте, подвержена колебаниям, или сотрясениям почвы." )
( ru_0611 "Перебраться через такую горную цепь людям, перевалившим через Анды, казалось делом лёгким." )
( ru_0612 "Население округа Тандиль, состоит приблизительно из четырёх, тысяч, жителей." )
( ru_0613 "Около полудня, путешественники перевалили через горную цепь Тандиль, и очутились на обширных равнинах, полого спускающихся к океану." )
( ru_0614 "Среди этого огня, невозможно было определить, какая именно электрическая искра, вызывает эти раскаты грома, которые, перекатываясь, уходили в, бесконечную, глубь, неба." )
( ru_0615 "Само собой разумеется, что пассажиры и второй день, использовали, для экскурсии, в глубь, +острова." )
( ru_0616 "Итак, его попросили, немедленно начать рассказ. - Мнемозина! - воскликнул учёный. - Богиня памяти, праматерь целомудренных муз, вдохнови твоего верного, и горячего почитателя!" )
( ru_0617 "Длинная цепь гор, параллельная восточному побережью, казалось преграждала доступ внутрь страны." )
( ru_0618 "Он, напряжённо, вглядывался в глубь туманов, скопившихся на севере горизонта." )
( ru_0619 "Когда он пришёл в себя, то был уже в плену у туземцев, которые увели его, в глубь материка." )
( ru_0620 "Местность становилась чудесной: её пастбища восхитили, и обогатили бы любого скваттера; эвкалипты вздымали здесь свои вершины, на огромную высоту." )
( ru_0621 "Кроме того, я не думаю, чтобы тридцать злоумышленников, могли испугать восемь хорошо вооружённых, и смелых людей." )
( ru_0622 "Как видим англичане, овладев страной, призвали на помощь колонизации, убийство." )
( ru_0623 "Айртон, подгонял бык+ов, и те, сделав, в этот день, переход в тридцать пять миль, несколько уст+али." )
( ru_0626 "Раз десять, Гленарван, возвращался на берег Сноуи, придумывая какой-нибудь смелый, способ, переправы." )
( ru_0627 "Но, не нашли, ни малейших признаков того, что дало бы основание, вновь начать поиски, в этих местах." )
( ru_0628 "Однажды на море разыгралась б+уря, во время которой шлюпка, перевозившая больных матросов с корабля Сюрвиля, была выброшена на берег бухты Рефюж." )
( ru_0633 "Ему на помощь, была послана шлюпка, которая и, доставила, его на судно." )
( ru_0634 "В хижине Такури, нашли человеческий череп, который недавно был сварен." )
( ru_0635 "Слабая зыбь, пробег+ала по морю, и в+олны океана сливались, с неподвижными тучами." )
( ru_0636 "Когда землемеры, явились вымерять, проданный участок, то вождь, Кинги, заявил протест." )
( ru_0637 "Уиткомб, и Говит, стояли во главе двух самостоятельных, экспедиций, на острове Те-Вахи, Пунаму." )
( ru_0638 "Поэтому пересекая равнину, где горная цепь, Хакарихатоа, переходит в холмы, маленькому отряду, пришлось преодолеть множество препятствий." )
( ru_0640 "При звуке выстрела, множество туземцев, высыпали из хижин, и, мгновенно заполнили площадь." )
( ru_0641 "Кай-Куму, вышел из своего жилища, и окружённый, главными вождями племени, подн+ялся на земляную н+асыпь, в несколько футов вышины, находившуюся посредине крепости." )
( ru_0643 "Капли, дымящейся крови, покрывали чудовищ гостей, и вся эта отвратительная орда, обливаясь кровавыми брызгами, урчала." )
( ru_0644 "Услышав какие-то звуки, на площади, перед хижиной, он вернулся в храм, приподнял циновку, и стал наблюдать за маорийцами." )
( ru_0645 "Через пять минут, беглецы, благополучно выбравшись из храма, покинули своё вр+еменное убежище, и сторонясь заселённых берегов озера, пошли узкими тропами, в самую глубь, гор." )
( ru_0648 "Оставалось ждать наступления ночи, чтобы попытаться прорваться, сквозь цепи, маорийцев." )
( ru_0649 "Они начали бесшумно спускаться, и минут через десять, были уже на узком горном хребте, пересекавшем неприятельскую цепь, на высоте пятидесяти футов." )
( ru_0650 "Из рощ, дикого, чайного, дерева, струились прозрачные соляные источники, над которыми, реяли, мириады насекомых." )
( ru_0651 "Чтобы выйти на побережье, требовалось ещё два дня, причём путешественники, должн+ы были удвоить свою энергию, и бдительность, ибо вступили в местность, которую посещают туземцы." )
( ru_0652 "Однако признание Айртона, сделанное в ущерб себе, тронуло присутствующих." )
( ru_0653 "Эрих принадлежал, к, загадочной категории дядей, и к не менее загадочной категории наци." )
( ru_0654 "Почему ты вдруг покраснела? - Оставь меня в, покое, на несколько дней: я, должн+а, на досуге, многое продумать." )
( ru_0660 "Ещё не до конца, разыграна кровь в, моче, у Фовинкеля сегодня подают, пятьдесят различных рыбных блюд, а он терпеть не может рыбу." )
( ru_0662 "Только, очутившись за тяжёлой портьерой, Мартин сообразил, до чего глуп билетёр." )
( ru_0663 "И чем меньше виски остаётся в бутылке, чем грубее становится голос бродяги, тем ближе конец фильма." )
( ru_0664 "Не обращая на них внимания, он свернул вправо, объехал вокруг церкви, и остановил машину, у входа в ризницу." )
( ru_0667 "Суп горячий, картошка поджарена, и даже на третье, всегда есть, что-нибудь." )
( ru_0668 "В обычно мутных, зрачках кондитера, блестели теперь, зелёные огоньки." )
( ru_0669 "Зелёные светлячки, медленно приближаются к ней, они уже совсем близко. - Зажги, свет! - сказала она." )
( ru_0670 "Мартин уставился на дверь ризницы, думая о том, похож ли, Альберт, вообще на отца." )
( ru_0672 "В крепости когда-то был концлагерь, и мы сидели здесь, вместе с его покойным отцом, а одного нашего общего друга, нацисты замучили здесь д+осмерти." )
( ru_0673 "Улыбнулся и Генрих, - это и, впрямь забавно." )
( ru_0674 "Мартин попытался заснуть, - промелькнули в памяти ковбой, Хоппелон, Кессиди, и утенок Дональд Дак, но ему вдруг стало стыдно думать о таких пустяках." )
( ru_0675 "Став одним из лидеров, конституционно демократической партии, мой отец, тем самым, презрительно отверг, все те чины, которые так обильно, шли его предкам." )
( ru_0677 "Оставшиеся зубы, этот жестокий американец, перекрутил тесёмками перед тем, как, обезобразить нас, платиновыми проволоками." )
( ru_0678 "Но нет: Уильям Доббин, был, мало склонен, к себялюбивым размышлениям." )
( ru_0679 "Ваша жена, постоянно посылает ей, м+аленькии доказательства своей любви, ваша дочурка, вышивает для неё шерстью, бесконечные ридикюли, подушки, и скамеечки для ног." )
( ru_0680 "Что же касается Осборна, то, когда он задавался какой-нибудь целью, всякое новое препятствие, или скопление их, только усиливало его решимость." )
( ru_0682 "Сам, Осборн, приезжал, в дни актов в школу, на четвёрке лошадей, со слугами в новых ливреях, и одарял новенькими шиллингами учеников, товарищей Джорджа." )
( ru_0683 "Ну что ж, - перед ним, открыт весь мир." )
( ru_0684 "Как пробудились вновь, любовь, надежды, и молитва в груди, к, которой прижался малютка!" )
( ru_0685 "На шее у милорда, и вправду, была цепь ордена Золотого руна, - дар испанских государей, вернувшихся на свой престол." )
( ru_0689 "Леди Джейн, получила предписание быть любезной, с Фадлстонами, Уопшотами, и другими благородными баронетами, их соседями." )
( ru_0690 "Как принц Хел, примеряет отцовскую корону, он даёт вам верное изображение, всякого, законного, наследника." )
( ru_0691 "Чтобы дать отпор общему врагу, дамы Гонт-Хауса, призвали себе на помощь, леди Бейракрс." )
( ru_0692 "Эотеп, видел её там, - не на Бейкер-стрит, а в другом её уединённом, убежище." )
( ru_0693 "Эгист, поднимает кинжал, чтобы поразить спящего, который поворачивается на постели, и словно подставляет, под удар, свою широкую грудь." )
( ru_0695 "Она может оказать ему услугу, в деле с Эдуардом." )
( ru_0696 "Теперь Химмельштос, поворачивается к нему: - Ведь это Тьяден, не так ли?" )
( ru_0697 "Затем он снова, валится на тюфяк, и продолжает спать." )
( ru_0698 "Ждущие у шлагбаума крестьяне, махающие вслед поезду девочки, играющие на полотне дети, уходящие вглубь дороги, гладкие не разбитые дороги, на которых, не видно артиллерии." )
( ru_0699 "Он говорит как по писаному. - Ваша фамилия? - Йозеф Хамахер, призван, из резерва." )
( ru_0702 "Те у кого ещё остались, сапоги, обвязывают раструбы голенищ, мешочками с песком, чтобы глинистая вода, не так быстро проникала в них." )
( ru_0703 "Игра хрустальных радуг, переброшенных, от атанора к атанору, выходящих, из одного перегонного куба, и в другой куб, впадающих." )
( ru_0705 "Первая буква еврейского алфавита, в каббал+е означает, +эн с+оф, - безграничную, чистую божественность." )
( ru_0712 "Граф же, д'Артуа, со своим отрядом, ринулся за неприятелем." )
( ru_0713 "Решение было принято королём в тот же день: кострище, будет возведено в центре острова Ситэ." )
( ru_0714 "По ассоциации от Дюфи, я перешёл к, Гийому Дюфэ." )
( ru_0715 "Знакомьтесь. - Видите ли Казобон, - н+ачал после этого Бельбо. - Удирать нельзя, по прямой линии." )
( ru_0719 "Мартинетти, подготовил очень мудрый план: мы пересечём железнодорожную насыпь, севернее станции, и, неожиданно зайдя сзади, практически выиграем." )
( ru_0720 "Провансальских катаров, к тому времени уничтожили, я не настолько наивен, чтобы верить в, пресловутый слёт, на руинах Монсегюра." )
( ru_0721 "Через несколько месяцев, многие студенты, приступили к вооружённым акциям, эпоха больших демонстраций, под открытым небом, заканчивалась." )
( ru_0722 "Эпизод борьбы английских колоний в Северной, Америке, за независимость." )
( ru_0723 "В церквях, нами занимались морщинистые, хромоногие служки, дарохранительницы, изнывали от золота и мельхиора, от перегруженных ларей, и бесценных окладов." )
( ru_0724 "Но через год, Габсбурги, достали его под Белой горой." )
( ru_0725 "А понимать это надо так, что послушайте-ка, через два дня, начинаются визиты: я собираюсь ложиться спать, - и вдруг, де Вильфор" )
( ru_0727 "Жоффруа де Шарнэ. - А это уж вообще, сказал я. - Де Шарнэ, это товарищ Молэ, гроссмейстера храмовников." )
( ru_0728 "Я ждал Ребиса, ребёнка гермафродита, философскую соль, венец белого дела." )
( ru_0729 "Именно, он писал, под вымышленным именем, - Иоганн, Валентин, Андреа!" )
( ru_0730 "Эзотеризм, есть изыскание св+едений, которые передаются исключительно, посредством символов, непостижимых для профанов." )
( ru_0731 "А л+андграф Гессенский, при дворе которого Сен-Жермен, якобы скончался, утверждал что граф был трансильванского происхождения, и прозывался, Рагоцкий." )
( ru_0732 "Придумывать, придумывать неистово, не заботясь о, связности, до тех пор, пока невозможно будет ничего, резюмировать." )
( ru_0734 "Под статуей, располагался пылающий жертвенник, на который постоянно подбрасывали травы, эссенции." )
( ru_0735 "Будто, расстроенная струна, звучит на расстроенной балалайке: гынь, гынь, гынь." )
( ru_0736 "На восемь километров, или на все десять, тянулась рыжая, ниточка, полуобвалившейся траншеи, оплывшей по брустверам." )
( ru_0737 "Коляша, отправился в ближайший скверик, отыскал местечко потенистей, лёг на траву, открыл страницу: Ревел там Днепр широкий, сердитый ветер завывал." )
( ru_0738 "Гость налил, и вояки, сделали по братскому глотку. Ох, что мы п+ережили, хлопец!" )
( ru_0739 "Из-за тынов, кустов, и дерев, метнулась армия доброхотов, в известную всем хату, или в сарай, где хоронилась изменьщица." )
( ru_0740 "Гэ, гэ, гэ! - обрадовалась она, сравнению себя с, цып+ушкой, и захохотала так, что наверху зазвякало железо." )
( ru_0741 "Товарищ, Чащин, он с понятием, он слово-то словом, но дело делом, около себя меня держал, навроде как, вестового и писаря." )
( ru_0742 "Женяра, прижалась щекой к руке мужа, и не стала больше ничего говорить." )
( ru_0744 "Тоже, вот противоречие: в молодости, за рулём так и долило сном, хоть спички в глаз+а вставляй, а нынче не спится, мается товарищ Хахалин." )
( ru_0748 "И если действительно, нам противостоит противник, а не простая цепь случайностей." )
( ru_0749 "У рыб, например, эволюция останавливается, именно на этой стадии." )
( ru_0750 "Один ребёнок, восьми лет, восемь, - семи с половиной, двадцать четыре, семи, и наконец сто восемьдесят один, - шести лет." )
( ru_0751 "Господин Ямамото, вновь переходит на деловой тон: - Здесь, в среднем поясе здания, они живут, а нижние этажи, отведены под обычные классы." )
( ru_0752 "Чтобы отвлечься, от ненавистных мыслей, стал слушать шепоток, своих соседок." )
( ru_0753 "Вот как иногда поворачивается жизнь: то темь беспросветная, то снова улыбается солнце." )
( ru_0754 "Наконец подн+ялся занавес, и на возвышении появился, только что приехавший из уезда, секретарь укома, товарищ Разин." )
( ru_0755 "Сквозь деревья он увидел на дороге, Тоню Туманову, и военкома агитп+оезда, Чужанина." )
( ru_0756 "А вы же считали, товарищ дорогой, что кроме идейной дружбы, ничего нет." )
( ru_0757 "Я иду в цех по специальности, а не секретарём коллектива, и поскольку я ещё слаб физически, прошу на другую работу не посылать." )
( ru_0759 "Корчагин улыбнулся: - Через двадцать лет, у нас ни одной межи не останется, товарищ землемер." )
( ru_0761 "Празднично, одета крестьянская молодёжь, веселье, деревенские девчата, серебристая, россыпь, девичьего смеха, серьёзные лица взрослых, и торжественные стариков." )
( ru_0762 "Сквозь кимоно можно ясно увидеть, как в, такт этим движениям, колышется её грудь." )
( ru_0765 "Овощи писают в постель, замык+ают цепь звонка и электрошока, их сбрасывает на кафель, санитары обдают их из шланга, одевают в новое, зелёное." )
( ru_0766 "Её взгляд щёлкнул по третьему; каждый из них дёргался, как мишень в тире." )
( ru_0767 "Эшт, не всегда используется, в карательных целях, как использует её наша сестра, и со стороны персонала, - это отнюдь, не чистый садизм." )
( ru_0768 "У, дамочка, китайцы в том лагере, могли бы у вас поучиться. - Рэндл, мы пытаемся вам помочь." )
( ru_0769 "Хью Броутон, полемический писатель времён Джемса Первого, доказал, что Рахаб, была блудницей, в десять лет." )
( ru_0771 "Сперва Билль, потом Фэй, с очень серьёзным видом, отрицательно покачали головой." )
( ru_0772 "Не было на тротуарах, той весёлой толкучки, прохлаждающихся граждан, какую видишь у нас по ночам в сладкой, спелой, гниющей, Европе." )
( ru_0773 "Кто ж зевает теперь на должности? - все приобретают." )
( ru_0774 "Дорога эта, эфирнее самого воздуха, вилась голубым путём среди шиповника, жимолости, и белых акаций, среди теней и переливов, невещественных форм, созданных игрой, утра." )
( ru_0775 "Товарищ Шульга! - сказала она, и рука её, державшая скобу двери, беспомощно упала. - Каким ветром вас занесло?" )
( ru_0782 "Но Шульга не знал, как жил Кондратович, целых двенадцать лет, и каких лет: когда совершались, самые большие дел+а в стране." )
( ru_0784 "А врач, Фёдор Фёдорович, как они их стали брать, не выдержал, и вступился." )
( ru_0785 "Любовь Шевцова, принадлежала к той группе комсомолок, и комсомольцев, которые ещё прошлой осенью, были выдвинуты в распоряжение партизанского штаба, для использования в тыл+у врага." )
( ru_0788 "Парень, сильно нервничал, но из самолюбия, не отползал, в глубь балки." )
( ru_0789 "Но Стаховича не было. - Что вы хлопцы можете, до того очумели что не знали, как его убили!" )
( ru_0791 "И почти в тот самый момент, как они выползли на гребень холма, по этой дороге, промчалось, несколько немцев, мотоциклистов, свернувших в, глубь села." )
( ru_0792 "В помощь себе, Ваня и Олег, привлекли Земнухова, Серёжку Тюленина, Любу Шевцову, и Евгения Стаховича, как человека, уже нюхнувшего пороху." )
( ru_0793 "Как-то ночью, проснулся я здесь в камере, меня аж, в дрожь, кинуло." )
( ru_0794 "У порога, прислонившись к двери, не замечаемая никем, стояла бабушка Вера, с худым иссечённым морщинами, бронзовым лицом, Данте Алигьери." )
( ru_0795 "Степь, раскинулась вокруг, в одних увядших былинках, и всё же прекрасная, в свете ранней осени, свете расплавленной меди." )
( ru_0796 "Забыл, как жили в семейном доме, двенадцать семейств, на пол+у валялись, одних детей, двадцать восемь штук?" )
( ru_0797 "Глаз+а его приняли безумное выражение, и он не успев вытащить рук, из карманов, издал странный, тихий звук: - Ых..." )
( ru_0799 "Понятно? - Понятно, - тихо сказал Олег. - Связь. - Филипп Петрович помолчал. - Кустарно, у вас дело, поставлено." )
( ru_0800 "Теперь он умолк, но блеск его глаз, яркий румянец щёк, - всё, вплоть до лоснящейся бороды, казалось кричало, о его торжестве." )
( ru_0801 "Блуждая один, по тёмным улицам, он произведёт самое тщательное расследование, проверит свои воспоминания, призовёт на помощь весь свой разум, и тогда, истина, откроется ему." )
( ru_0802 "Их взоры, избегали друг друга, и, их глаз+а приобрели необыкновенную подвижность, научились хитрить, словно противники, не смеющие скрестить оружие." )
( ru_0803 "Да и как они могут поверить, ведь Земля давно оставила попытки освоить космос." )
( ru_0804 "Он однако, никак не мог понять, отчего они смеются. - Ватанабэ, у меня что-то не так?" )
( ru_0806 "Сон навалился на меня, и погрузил в тёплую глубь земли." )
( ru_0807 "Поэтому уж лучше, расставь-ка на палубе подходящие сосуды, чтобы насобирать пресной воды, и научись закидывать удочки с верхнего дека, и перестань бегать от солнца." )
( ru_0808 "А у нас, зверь, - это дикая сила, мощь жеребца, бычачий упрямый мускул." )
( ru_0810 "Первая неизъяснённая любовь, убедила его навеки, что предмет стр+астного чувства, располагается далеко, и думаю, этим, определилась вся его участь." )
( ru_0811 "Любовь земная, оттого разлук не терпит, что они разъединяют вещество, составившее суть любви." )
( ru_0812 "Величественная постройка, вся в мачтах и парусах, несказанно отличающаяся от их, каноэ, не могла им представляться, рукотворным произведением человека." )
( ru_0813 "По крайней мере, эрудит, интересующийся божественными, и естественными, науками." )
( ru_0814 "Роберту следовало бы знать, что если бросаешь щенка в, воду, тот теребит лапами, и не только удерживается, но прибивается к, краю." )
( ru_0818 "Пиша, и подымая орудие, чтобы макнуть в чернила, он видел свет: то золотой ореол на листе, то восковую и прозрачную зыбь, кругом контура пальцев." )
( ru_0819 "Вообще-то бесспорно, что на небе южного полушарья, неподалёку от созвездия Большого Пса, уже за сорок лет до, того было открыто созвездие Голубя." )
( ru_0820 "Теперь Феррант, не рискует, и выходить в Р+обертовом обличье, чтобы не натолкнуться на тех, кому известно, что Роберт в другом месте." )
( ru_0822 "На загаженном пьедестале, восседал местный царь, манием руки он дал, нач+ало концерту молотками по камню, долот+ами по каменным д+оскам, лобзиками по фарфору." )
( ru_0823 "Самыми знаменитыми из всех высокогорных хижин, баз, были Линдауэр-Хютте, Мадленер-Хаус, и Висбаден-Хютте." )
( ru_0825 "Я, опять, ошибся: любовь дикарки немногим лучше, любви знатной барыни; невежество и простосердечие одной, так же надоедают, как и кокетство другой." )
( ru_0828 "Перед подачей на стол, добавьте в подливку, пакетик гидрата окиси лития, и кварту парного молока." )
( ru_0829 "Солнце, и степь, - велич+ины вечные: по солнцу измеряется степь, насколько оно велико, освещаемое солнцем пространство." )
( ru_0830 "Вор+ота были совсем уж феноменальные, как в паровозном депо, на ржавых железных петлях, в пуд, весом." )
( ru_0831 "Тогда я соскочил на пол, отворил дверь, щеколда была на месте, и вышел в прихожую." )
( ru_0832 "Жиан Жиакомо, Кристобаль Хунта, Джузеппе Бальзамо, или скажем товарищ Киврин, Фёдор Симеонович." )
( ru_0834 "Ты как сюда попал? - Через дверь, через дверь, пусти... - сказал Володя. - Эдька, ещё правее!" )
( ru_0835 "Вы товарищ Питомник, там свой фотоаппаратик отложите, а возьмите вы к+иноаппаратик, потому как здесь мы имеем процесс." )
( ru_0836 "За ваши предложения, я очень благодарна, но принять их не могу." )
( ru_0837 "На неё спрос. - Аверьянов казалось, усиленно соображая что-то, заскрёб щетину на подбородке. - А что прикажете мне делать с, Б+остоном?" )
( ru_0839 "А вырвавшись, он протиснулся сквозь х+а+ос, бегущих от перрона к соседнему эскалатору, толп." )
( ru_0840 "Что сказал? - Я, договорил Константин. - Доброе утро товарищ Гелашвили!" )
( ru_0841 "Было время, когда за такую вещь, давали восемь фунтов, а восемь фунтов, - это не мало." )
( ru_0842 "Все граждане Ливен, ложась спать, ставят свою обувь около постели, носками, к середине комнаты." )
( ru_0844 "Наоборот, я даже полюбил его, за чистоту воздуха, холод, когда горят щёки, оловянную рябь, рек, тяжёлое передвижение туч." )
